[
{
        "name": "QQE03-12R",
        "id": 147,
        "description": "Push-pull amplifier with two QQE03-12 per channels.",
        "dampingfactor": 1,
        "power": "",
        "bandwidth": "unknown",
        "amplificationfactor": 1,
        "inverter": false,
        "tubes": [
            {
                "name": "QQE03-12"
            },
            {
                "name": "QQE03-12"
            },
            {
                "name": "QQE03-12"
            },
            {
                "name": "QQE03-12"
            }
        ],
        "errors": [
            {
                "id": 2,
                "descr": "Discharge too long"
            },
            {
                "id": 3,
                "descr": "Current during heat time"
            },
            {
                "id": 4,
                "descr": "Out of range during starting"
            },
            {
                "id": 5,
                "descr": "Regulation too long"
            },
            {
                "id": 6,
                "descr": "Maximun reached during regulation"
            },
            {
                "id": 7,
                "descr": "Minimum reached during regulation"
            },
            {
                "id": 8,
                "descr": "Maximun reached during normal function"
            },
            {
                "id": 9,
                "descr": "Minimum reached during normal function"
            },
            {
                "id": 10,
                "descr": "Time elapsed with current out of range during normal function"
            },
            {
                "id": 11,
                "descr": "Starting too long"
            },
            {
                "id": 12,
                "descr": "Temperature maximum reached"
            }
        ],
        "templateUrl": "/templates/amp/gu17r.html",
        "controllerUrl": "/scripts/amp/gu17r.js",
        "controller": "controller147"
    },
    {
        "name": "QQE03-12SPUD",
        "id": 122,
        "description": "SPUD amplifier with one QQE03-12 per channels.",
        "dampingfactor": 1.33,
        "power": "8W",
        "bandwidth": "unknown",
        "amplificationfactor": 3.2,
        "inverter": false,
        "tubes": [
            {
                "name": "Left: QQE03-12"
            },
            {
                "name": "Right: QQE03-12"
            }
        ],
        "errors": [
            {
                "id": 2,
                "descr": "Discharge too long"
            },
            {
                "id": 3,
                "descr": "Current during heat time"
            },
            {
                "id": 4,
                "descr": "Regulation too long"
            },
            {
                "id": 5,
                "descr": "Maximun reached during regulation"
            },
            {
                "id": 6,
                "descr": "Minimum reached during regulation"
            },
            {
                "id": 7,
                "descr": "Maximun reached during normal function"
            },
            {
                "id": 8,
                "descr": "Minimum reached during normal function"
            },
            {
                "id": 9,
                "descr": "Starting out of range"
            },
            {
                "id": 10,
                "descr": "Temperature maximum reached"
            }
        ],
        "url": "https://plus.google.com/photos/101484722727144067052/albums/5935595517212056161?banner=pwa",
        "templateUrl": "/templates/amp/gu17spud.html",
        "controllerUrl": "/scripts/amp/gu17spud.js",
        "controller": "controller122"
    },
    {
        "name": "QQE03-12TPP-L",
        "id": 6,
        "description": "Triple push-pull amplifier with six QQE03-12 per channels. Left channel.",
        "dampingfactor": 4.1,
        "power": "35W",
        "bandwidth": "5HZ-75KHZ (-3db)",
        "amplificationfactor": 2.3,
        "inverter": false,
        "tubes": [
            {
                "name": "QQE03-12"
            },
            {
                "name": "QQE03-12"
            },
            {
                "name": "QQE03-12"
            },
            {
                "name": "QQE03-12"
            },
            {
                "name": "QQE03-12"
            },
            {
                "name": "QQE03-12"
            }
        ],
        "errors": [
            {
                "id": 2,
                "descr": "Discharge too long"
            },
            {
                "id": 3,
                "descr": "Current during heat time"
            },
            {
                "id": 4,
                "descr": "Out of range during starting"
            },
            {
                "id": 5,
                "descr": "Stabilization too long"
            },
            {
                "id": 6,
                "descr": "Maximun reached during regulation"
            },
            {
                "id": 7,
                "descr": "Minimum reached during regulation"
            },
            {
                "id": 8,
                "descr": "Maximun reached during normal function"
            },
            {
                "id": 9,
                "descr": "Minimum reached during normal function"
            },
            {
                "id": 10,
                "descr": "Time elapsed with current out of range during normal function"
            },
            {
                "id": 11,
                "descr": "Starting too long"
            },
            {
                "id": 12,
                "descr": "Temperature maximum reached"
            },
            {
                "id": 14,
                "descr": "Phase"
            }
        ],
        "url": "https://plus.google.com/photos/101484722727144067052/albums/5935596980638777601?banner=pwa",
        "templateUrl": "/templates/amp/gu17tpp.html",
        "controllerUrl": "/scripts/amp/gu17tpp.js",
        "controller": "controller017"
    },
    {
        "name": "QQE03-12TPP-R",
        "id": 7,
        "description": "Triple push-pull amplifier with six QQE03-12 per channels. Right channel.",
        "dampingfactor": 4.1,
        "power": "35W",
        "bandwidth": "5HZ-75KHZ (-3db)",
        "amplificationfactor": 2.3,
        "inverter": false,
        "tubes": [
            {
                "name": "QQE03-12"
            },
            {
                "name": "QQE03-12"
            },
            {
                "name": "QQE03-12"
            },
            {
                "name": "QQE03-12"
            },
            {
                "name": "QQE03-12"
            },
            {
                "name": "QQE03-12"
            }
        ],
        "errors": [
            {
                "id": 2,
                "descr": "Discharge too long"
            },
            {
                "id": 3,
                "descr": "Current during heat time"
            },
            {
                "id": 4,
                "descr": "Out of range during starting"
            },
            {
                "id": 5,
                "descr": "Stabilization too long"
            },
            {
                "id": 6,
                "descr": "Maximun reached during regulation"
            },
            {
                "id": 7,
                "descr": "Minimum reached during regulation"
            },
            {
                "id": 8,
                "descr": "Maximun reached during normal function"
            },
            {
                "id": 9,
                "descr": "Minimum reached during normal function"
            },
            {
                "id": 10,
                "descr": "Time elapsed with current out of range during normal function"
            },
            {
                "id": 11,
                "descr": "Starting too long"
            },
            {
                "id": 12,
                "descr": "Temperature maximum reached"
            },
            {
                "id": 14,
                "descr": "Phase"
            }
        ],
        "url": "https://plus.google.com/photos/101484722727144067052/albums/5935596980638777601?banner=pwa",
        "templateUrl": "/templates/amp/gu17tpp.html",
        "controllerUrl": "/scripts/amp/gu17tpp.js",
        "controller": "controller017"
    },
    {
        "name": "QQE04-20PP-L",
        "id": 32,
        "description": "Push-pull amplifier with two QQE04-20 per channels. Left Channel.",
        "dampingfactor": 1.26,
        "power": "15W",
        "bandwidth": "unknown",
        "amplificationfactor": 5.4,
        "inverter": false,
        "tubes": [
            {
                "name": "Left: QQE04-20"
            },
            {
                "name": "Right: QQE04-20"
            }
        ],
        "errors": [
            {
                "id": 2,
                "descr": "Discharge too long"
            },
            {
                "id": 3,
                "descr": "Current during heat time"
            },
            {
                "id": 4,
                "descr": "Out of range during starting"
            },
            {
                "id": 5,
                "descr": "Stabilization too long"
            },
            {
                "id": 6,
                "descr": "maximun reached during regulation"
            },
            {
                "id": 7,
                "descr": "minimum reached during regulation"
            },
            {
                "id": 8,
                "descr": "maximun reached during normal function"
            },
            {
                "id": 9,
                "descr": "minimum reached during normal function"
            },
            {
                "id": 10,
                "descr": "Starting too long"
            }
        ],
        "url": "https://plus.google.com/photos/101484722727144067052/albums/5981091500376911393?banner=pwa",
        "templateUrl": "/templates/amp/gu32pp.html",
        "controllerUrl": "/scripts/amp/gu32pp.js",
        "controller": "controller032"
    },
    {
        "name": "QQE04-20PP-R",
        "id": 33,
        "description": "Push-pull amplifier with two QQE04-20 per channels. Right Channel.",
        "dampingfactor": 1.26,
        "power": "15W",
        "bandwidth": "unknown",
        "amplificationfactor": 5.4,
        "inverter": false,
        "tubes": [
            {
                "name": "Left: QQE04-20"
            },
            {
                "name": "Right: QQE04-20"
            }
        ],
        "errors": [
            {
                "id": 2,
                "descr": "Discharge too long"
            },
            {
                "id": 3,
                "descr": "Current during heat time"
            },
            {
                "id": 4,
                "descr": "Out of range during starting"
            },
            {
                "id": 5,
                "descr": "Stabilization too long"
            },
            {
                "id": 6,
                "descr": "maximun reached during regulation"
            },
            {
                "id": 7,
                "descr": "minimum reached during regulation"
            },
            {
                "id": 8,
                "descr": "maximun reached during normal function"
            },
            {
                "id": 9,
                "descr": "minimum reached during normal function"
            },
            {
                "id": 10,
                "descr": "Starting too long"
            }
        ],
        "url": "https://plus.google.com/photos/101484722727144067052/albums/5981091500376911393?banner=pwa",
        "templateUrl": "/templates/amp/gu32pp.html",
        "controllerUrl": "/scripts/amp/gu32pp.js",
        "controller": "controller032"
    },
    {
        "name": "QQE03-12DPP",
        "id": 128,
        "description": "Double push-pull amplifier with four QQE03-12 per channels.",
        "dampingfactor": 3,
        "power": "25W",
        "bandwidth": "5HZ-75KHZ (-3db)",
        "amplificationfactor": 2.8,
        "inverter": false,
        "tubes": [
            {
                "name": "QQE03-12"
            },
            {
                "name": "QQE03-12"
            },
            {
                "name": "QQE03-12"
            },
            {
                "name": "QQE03-12"
            },
            {
                "name": "QQE03-12"
            },
            {
                "name": "QQE03-12"
            },
            {
                "name": "QQE03-12"
            },
            {
                "name": "QQE03-12"
            }
        ],
        "errors": [
            {
                "id": 2,
                "descr": "Discharge too long"
            },
            {
                "id": 3,
                "descr": "Current during heat time"
            },
            {
                "id": 4,
                "descr": "Out of range during starting"
            },
            {
                "id": 5,
                "descr": "Stabilization too long"
            },
            {
                "id": 6,
                "descr": "Maximun reached during regulation"
            },
            {
                "id": 7,
                "descr": "Minimum reached during regulation"
            },
            {
                "id": 8,
                "descr": "Maximun reached during normal function"
            },
            {
                "id": 9,
                "descr": "Minimum reached during normal function"
            },
            {
                "id": 10,
                "descr": "Time elapsed with current out of range during normal function"
            },
            {
                "id": 11,
                "descr": "Starting too long"
            },
            {
                "id": 12,
                "descr": "Temperature maximum reached"
            }
        ],
        "url": "https://plus.google.com/photos/101484722727144067052/albums/5935596980638777601?banner=pwa",
        "templateUrl": "/templates/amp/gu17dpp.html",
        "controllerUrl": "/scripts/amp/gu17dpp.js",
        "controller": "controller128"
    },
    {
        "name": "807SE",
        "id": 207,
        "description": "Single ended amplifier with one 807 per channels.",
        "dampingfactor": 2.4,
        "power": "8W",
        "bandwidth": "17HZ-65KHZ (-3db)",
        "amplificationfactor": 13,
        "inverter": true,
        "tubes": [
            {
                "name": "807"
            },
            {
                "name": "6SJ7"
            }
        ],
        "errors": [
            {
                "id": 2,
                "descr": "Discharge too long"
            },
            {
                "id": 3,
                "descr": "Current during heating time"
            },
            {
                "id": 4,
                "descr": "Stabilization too long"
            },
            {
                "id": 5,
                "descr": "Out of range during normal function"
            }
        ],
        "url": "https://plus.google.com/photos/101484722727144067052/albums/5935594425575460337?banner=pwa",
        "templateUrl": "/templates/amp/807se.html",
        "controllerUrl": "/scripts/amp/807se.js",
        "controller": "controller207"
    },
    {
        "name": "12E1",
        "id": 212,
        "description": "Push-pull amplifier with two 12E1 per channels.",
        "dampingfactor": 3.7,
        "power": "25W",
        "bandwidth": "10HZ-100KHZ (-3db)",
        "amplificationfactor": 10,
        "inverter": false,
        "tubes": [
            {
                "name": "12E1"
            },
            {
                "name": "12E1"
            },
            {
                "name": "6SN7"
            },
            {
                "name": "6SN7"
            }
        ],
        "errors": [
            {
                "id": 2,
                "descr": "Discharge too long"
            },
            {
                "id": 3,
                "descr": "Current during heat time"
            },
            {
                "id": 4,
                "descr": "Out of range during starting"
            },
            {
                "id": 5,
                "descr": "Regulation too long"
            },
            {
                "id": 6,
                "descr": "Maximun reached during regulation"
            },
            {
                "id": 7,
                "descr": "Minimum reached during regulation"
            },
            {
                "id": 8,
                "descr": "Maximun reached during normal function"
            },
            {
                "id": 9,
                "descr": "Minimum reached during normal function"
            },
            {
                "id": 10,
                "descr": "Time elapsed with current out of range during normal function"

            },
            {
                "id": 11,
                "descr": "Starting too long"
            },
            {
                "id": 12,
                "descr": "Temperature maximum reached"
            },
            {
                "id": 13,
                "descr": "Screen current too high"
            },
            {
                "id": 14,
                "descr": "Phase detction"
            }
        ],
        "url": "https://plus.google.com/photos/101484722727144067052/albums/5264186301684564849?banner=pwa",
        "templateUrl": "/templates/amp/12e1pp.html",
        "controllerUrl": "/scripts/amp/12e1pp.js",
        "controller": "controller212"
    },
    {
        "name": "807SRPPL",
        "id": 208,
        "description": "SRPP amplifier with two 807 per channels. Left channel.",
        "dampingfactor": 1.4,
        "power": "25W",
        "bandwidth": "4HZ-220KHZ (-3db)",
        "amplificationfactor": 10,
        "inverter": false,
        "tubes": [
            {
                "name": "807"
            },
            {
                "name": "807"
            },
            {
                "name": "807"
            },
            {
                "name": "807"
            },
            {
                "name": "6CM7"
            },
            {
                "name": "6E5P"
            }
        ],
        "errors": [
            {
                "id": 2,
                "descr": "Screen current"
            },
            {
                "id": 3,
                "descr": "Stabilization too long"
            },
            {
                "id": 4,
                "descr": "Out of range"
            },
            {
                "id": 5,
                "descr": "Air inside amplifier temperature too high"
            },
            {
                "id": 6,
                "descr": "Shunt regulator temperature too high"
            },
            {
                "id": 7,
                "descr": "Driver regulator temperature too high"
            },
            {
                "id": 8,
                "descr": "Internal transformer temperature too high"
            }
        ],
        "url": "https://plus.google.com/photos/101484722727144067052/albums/5954976616939055217?banner=pwa",
        "templateUrl": "/templates/amp/807srpp.html",
        "controllerUrl": "/scripts/amp/807srpp.js",
        "controller": "controller208"
    },
    {
        "name": "807SRPPR",
        "id": 209,
        "description": "SRPP amplifier with two 807 per channels. Right channel.",
        "dampingfactor": 1.4,
        "power": "25W",
        "bandwidth": "4HZ-220KHZ (-3db)",
        "amplificationfactor": 10,
        "inverter": false,
        "tubes": [
            {
                "name": "807"
            },
            {
                "name": "807"
            },
            {
                "name": "807"
            },
            {
                "name": "807"
            },
            {
                "name": "6CM7"
            },
            {
                "name": "6E5P"
            }
        ],
        "errors": [
            {
                "id": 2,
                "descr": "Screen current"
            },
            {
                "id": 3,
                "descr": "Stabilization too long"
            },
            {
                "id": 4,
                "descr": "Out of range"
            },
            {
                "id": 5,
                "descr": "Air inside amplifier temperature too high"
            },
            {
                "id": 6,
                "descr": "Shunt regulator temperature too high"
            },
            {
                "id": 7,
                "descr": "Driver regulator temperature too high"
            },
            {
                "id": 8,
                "descr": "Internal transformer temperature too high"
            }
        ],
        "url": "https://plus.google.com/photos/101484722727144067052/albums/5954976616939055217?banner=pwa",
        "templateUrl": "/templates/amp/807srpp.html",
        "controllerUrl": "/scripts/amp/807srpp.js",
        "controller": "controller208"
    },
    {
        "name": "GI30",
        "id": 30,
        "description": "Push-pull amplifier with two GI30 per channels.",
        "dampingfactor": 5,
        "power": "30W",
        "bandwidth": "??",
        "amplificationfactor": 2.7,
        "inverter": false,
        "tubes": [
            {
                "name": "GI30"
            },
            {
                "name": "GI30"
            },
            {
                "name": "GI30"
            },
            {
                "name": "GI30"
            }
        ],
        "errors": [
            {
                "id": 2,
                "descr": "Discharge too long"
            },
            {
                "id": 3,
                "descr": "Current during heating time"
            },
            {
                "id": 4,
                "descr": "Regulation too long"
            },
            {
                "id": 5,
                "descr": "Maximun reached during regulation"
            },
            {
                "id": 6,
                "descr": "Minimum reached during regulation"
            },
            {
                "id": 7,
                "descr": "Maximun reached during normal function"
            },
            {
                "id": 8,
                "descr": "Minimum reached during normal function"
            },
            {
                "id": 9,
                "descr": "Time elapsed with current out of range during normal function"
            },
            {
                "id": 10,
                "descr": "Starting too long"
            },
            {
                "id": 11,
                "descr": "Out of range during starting"
            },
            {
                "id": 12,
                "descr": "Temperature maximum reached"
            },
            {
                "id": 13,
                "descr": "Phase detection"
            }
        ],
        "url": "https://plus.google.com/photos/101484722727144067052/albums/5998993890371610817?banner=pwa",
        "templateUrl": "/templates/amp/gi30pp.html",
        "controllerUrl": "/scripts/amp/gi30pp.js",
        "controller": "controller030"
    },
    {
        "name": "GU19PP",
        "id": 19,
        "description": "Push-pull amplifier with two GU19 per channels.",
        "dampingfactor": 0,
        "power": "25W",
        "bandwidth": "5HZ-75KHZ (-3db)",
        "amplificationfactor": 0,
        "inverter": false,
        "tubes": [
            {
                "name": "6E6P-E"
            },
            {
                "name": "6E6P-E"
            },
            {
                "name": "6E6P-E"
            },
            {
                "name": "6E6P-E"
            },
            {
                "name": "GU19-1"
            },
            {
                "name": "GU19-1"
            },
            {
                "name": "GU19-1"
            },
            {
                "name": "GU19-1"
            }
        ],
        "errors": [
            {
                "id": 2,
                "descr": "Discharge too long"
            },
            {
                "id": 3,
                "descr": "Current during heat time"
            },
            {
                "id": 4,
                "descr": "Out of range during starting"
            },
            {
                "id": 5,
                "descr": "Regulation too long"
            },
            {
                "id": 6,
                "descr": "Maximun reached during regulation"
            },
            {
                "id": 7,
                "descr": "Minimum reached during regulation"
            },
            {
                "id": 8,
                "descr": "Maximun reached during normal function"
            },
            {
                "id": 9,
                "descr": "Minimum reached during normal function"
            },
            {
                "id": 10,
                "descr": "Time elapsed with current out of range during normal function"
            },
            {
                "id": 11,
                "descr": "Starting too long"
            },
            {
                "id": 12,
                "descr": "Temperature maximum reached"
            }
        ],
        "url": "",
        "templateUrl": "/templates/amp/gu19pp.html",
        "controllerUrl": "/scripts/amp/gu19pp.js",
        "controller": "controller019"
    }
]
